{
  "largeTestModal" : {
    "type" : "integer",
    "example" : "{\n\"data\": {\n\"Percentage_Configuration\": [{\n\"code\": \"DB_TSA_FKYC_PERCENTAGE\",\n\"values\": \"1%GEN_PROMOINFOS_NOLOCKDOWNSGEN_PROMOINFOS_NOLOCKDOWNS\",\n\"componentLabel\": \"DB_TSA_FKYC_PERCENTAGE\",\n\"groupName\": \"Percentage_Configuration\",\n\"componentType\": \"TEXT\",\n\"displayOrder\": 1\n}],\n\"ADDRUPD\": [{\n\"code\": \"ADDRUPD\",\n\"values\": \"10\",\n\"componentLabel\": \"ADDRUPD\",\n\"groupName\": \"ADDRUPD\",\n\"componentType\": \"TEXT\",\n\"displayOrder\": 1\n}],\n\"TDMIN\": [{\n\"code\": \"TDMIN\",\n\"values\": \"1000\",\n\"componentLabel\": \"TDMIN\",\n\"groupName\": \"TDMIN\",\n\"componentType\": \"TEXT\",\n\"displayOrder\": 1\n}],\n\"REFERRAL_BONUS\": [{\n\"code\": \"ACTIVE_REFERRAL_TYPE\",\n\"values\": \"1,2,3\",\n\"selectedValues\": \"3\",\n\"componentLabel\": \"ACTIVE_REFERRAL_TYPE\",\n\"groupName\": \"REFERRAL_BONUS\",\n\"componentType\": \"SELECT\",\n\"displayOrder\": 1,\n\"selectedIndex\": \"3\"\n},\n{\n\"code\": \"REFEREE_REFERRAL_BONUS\",\n\"values\": \"25\",\n\"componentLabel\": \"REFEREE_REFERRAL_BONUS\",\n\"groupName\": \"REFERRAL_BONUS\",\n\"componentType\": \"TEXT\",\n\"displayOrder\": 1\n}\n],\n\"CDD JIRA REVIEW\": [{\n\"code\": \"CDD_REVIEW_JIRA_GEN_ENABLE\",\n\"values\": \"Y,N\",\n\"selectedValues\": \"Y\",\n\"componentLabel\": \"CDD SKYC REVIEW JIRA GEN ENABLE\",\n\"groupName\": \"CDD JIRA REVIEW\",\n\"componentType\": \"SELECT\",\n\"displayOrder\": 1,\n\"selectedIndex\": \"1\"\n}],\n\"Onboarding Evaluation\": [{\n\"code\": \"DOCUMENT_EVALUATION\",\n\"values\": \"None,SKYC_Onboarding_Policy\",\n\"selectedValues\": \"None\",\n\"componentLabel\": \"Document Evaluation\",\n\"groupName\": \"Onboarding Evaluation\",\n\"componentType\": \"SELECT\",\n\"displayOrder\": 1,\n\"selectedIndex\": \"1\"\n},\n{\n\"code\": \"PH_PASSPORT\",\n\"values\": \"^[a-zA-Z][0-9]{7}[a-zA-Z]$,^[a-zA-Z]{2}[0-9]{7}$,^[a-zA-Z]{1}[0-9]{6}$,^[a-zA-Z]{2}[0-9]{6}$\",\n\"componentLabel\": \"Passport No Rule\",\n\"groupName\": \"Onboarding Evaluation\",\n\"componentType\": \"TEXT\",\n\"displayOrder\": 5\n}\n],\n\"APP_VERSION_CHECK\": [{\n\"code\": \"APP_VERSION_CHECK\",\n\"values\": \"Y,N\",\n\"selectedValues\": \"Y\",\n\"componentLabel\": \"APP VERSION CHECK\",\n\"groupName\": \"APP_VERSION_CHECK\",\n\"componentType\": \"SELECT\",\n\"displayOrder\": 1,\n\"selectedIndex\": \"1\"\n},\n{\n\"code\": \"ANDROID_VERSION\",\n\"values\": \"1.0.4\",\n\"componentLabel\": \"ANDROID VERSION\",\n\"groupName\": \"APP_VERSION_CHECK\",\n\"componentType\": \"TEXT\",\n\"displayOrder\": 2\n}\n],\n\"BKYCMAX\": [{\n\"code\": \"BKYCMAX\",\n\"values\": \"50000\",\n\"componentLabel\": \"BKYCMAX\",\n\"groupName\": \"BKYCMAX\",\n\"componentType\": \"TEXT\",\n\"displayOrder\": 1\n}],\n\"MARIGN05\": [{\n\"code\": \"MARIGN05\",\n\"values\": \"0.5\",\n\"componentLabel\": \"MARIGN05\",\n\"groupName\": \"MARIGN05\",\n\"componentType\": \"TEXT\",\n\"displayOrder\": 1\n}],\n\"App_Configuration\": [{\n\"code\": \"MAINTENANCE\",\n\"values\": \"Y,N\",\n\"selectedValues\": \"N\",\n\"componentLabel\": \"Maintenance\",\n\"groupName\": \"App_Configuration\",\n\"componentType\": \"SELECT\",\n\"displayOrder\": 1,\n\"selectedIndex\": \"2\"\n},\n{\n\"code\": \"GBL_PILOT_MODE_ENABLE\",\n\"values\": \"Y,N\",\n\"componentLabel\": \"Enable Pilot User\",\n\"groupName\": \"App_Configuration\",\n\"componentType\": \"TEXT\",\n\"displayOrder\": 1\n}\n],\n\"OFW CONFIGURATION\": [{\n\"code\": \"OFW_CHECK_ENABLE\",\n\"values\": \"Y,N\",\n\"selectedValues\": \"N\",\n\"componentLabel\": \"OFW CHECK ENABLE\",\n\"groupName\": \"OFW CONFIGURATION\",\n\"componentType\": \"SELECT\",\n\"displayOrder\": 1,\n\"selectedIndex\": \"2\"\n}],\n\"REDIS_CACHE\": [{\n\"code\": \"API_RESPONSE_CACHE_EXPIRY\",\n\"values\": \"5\",\n\"componentLabel\": \"API_RESPONSE_CACHE_EXPIRY\",\n\"groupName\": \"REDIS_CACHE\",\n\"componentType\": \"TEXT\",\n\"displayOrder\": 1\n},\n{\n\"code\": \"ENABLE_CACHE_FOR_PROFILE\",\n\"values\": \"Y,N\",\n\"selectedValues\": \"N\",\n\"componentLabel\": \"ENABLE_CACHE_FOR_PROFILE\",\n\"groupName\": \"REDIS_CACHE\",\n\"componentType\": \"SELECT\",\n\"displayOrder\": 1,\n\"selectedIndex\": \"2\"\n}\n],\n\"OTP_CONFIGURATION\": [{\n\"code\": \"TEXT_121_SELECT\",\n\"values\": \"test3123121,va1\",\n\"selectedValues\": \"va1\",\n\"componentLabel\": \"Select\",\n\"groupName\": \"OTP_CONFIGURATION\",\n\"componentType\": \"SELECT\",\n\"displayOrder\": 1,\n\"selectedIndex\": \"2\"\n},\n{\n\"code\": \"TEXT_121\",\n\"values\": \"Anis\",\n\"componentLabel\": \"Text lable\",\n\"groupName\": \"OTP_CONFIGURATION\",\n\"componentType\": \"TEXT\",\n\"displayOrder\": 1\n}\n],\n\"NATIONALID_CHECK_ENABLE\": [{\n\"code\": \"NATIONALID_CHECK_ENABLE\",\n\"values\": \"Y,N\",\n\"selectedValues\": \"N\",\n\"componentLabel\": \"NATIONALID_CHECK_ENABLE\",\n\"groupName\": \"NATIONALID_CHECK_ENABLE\",\n\"componentType\": \"SELECT\",\n\"displayOrder\": 1,\n\"selectedIndex\": \"2\"\n}],\n\"FLOATING_INT_50K_ABOVE\": [{\n\"code\": \"FLOATING_INT_50K_ABOVE\",\n\"values\": \"4\",\n\"selectedValues\": \"4\",\n\"componentLabel\": \"FLOATING_INT_50K_ABOVE\",\n\"groupName\": \"FLOATING_INT_50K_ABOVE\",\n\"componentType\": \"SELECT\",\n\"displayOrder\": 1,\n\"selectedIndex\": \"1\"\n}],\n\"TERMS AND CONDITIONS VERSION\": [{\n\"code\": \"TERMS_AND_CONDITIONS_VERSION\",\n\"values\": \"1.0,1.1\",\n\"componentLabel\": \"TERMS_AND_CONDITIONS_VERSION\",\n\"groupName\": \"TERMS AND CONDITIONS VERSION\",\n\"componentType\": \"TEXT\",\n\"displayOrder\": 1\n}],\n\"BKYC_STASH_COUNT\": [{\n\"code\": \"BKYC_STASH_COUNT\",\n\"values\": \"2\",\n\"componentLabel\": \"BKYC_STASH_COUNT\",\n\"groupName\": \"BKYC_STASH_COUNT\",\n\"componentType\": \"TEXT\",\n\"displayOrder\": 1\n}],\n\"RENTED\": [{\n\"code\": \"RENTED\",\n\"values\": \"RENTED\",\n\"componentLabel\": \"RENTED\",\n\"groupName\": \"RENTED\",\n\"componentType\": \"TEXT\",\n\"displayOrder\": 1\n}],\n\"Fraud Score Check Date\": [{\n\"code\": \"FRAUD_SCORE_CHECK_DATE\",\n\"values\": \"2021-10-26\",\n\"componentLabel\": \"Fraud Score Date\",\n\"groupName\": \"Fraud Score Check Date\",\n\"componentType\": \"TEXT\",\n\"displayOrder\": 1\n}],\n\"WITHHOLD_TAX\": [{\n\"code\": \"WITHHOLD_TAX\",\n\"values\": \"20\",\n\"selectedValues\": \"20\",\n\"componentLabel\": \"WITHHOLD_TAX\",\n\"groupName\": \"WITHHOLD_TAX\",\n\"componentType\": \"SELECT\",\n\"displayOrder\": 1,\n\"selectedIndex\": \"1\"\n}],\n\"NAME EDIT\": [{\n\"code\": \"NAME_EDIT_THRESHOLD_LIMIT\",\n\"values\": \"3\",\n\"componentLabel\": \"NAME EDIT THRESHOLD LIMIT\",\n\"groupName\": \"NAME EDIT\",\n\"componentType\": \"TEXT\",\n\"displayOrder\": 1\n}],\n\"TD Configration\": [{\n\"code\": \"TD_ERLY_WD_CLING_PRD\",\n\"values\": \"5\",\n\"componentLabel\": \"TD early withdrawal Cooling Period\",\n\"groupName\": \"TD Configration\",\n\"componentType\": \"TEXT\",\n\"displayOrder\": 1\n}],\n\"TDMAXNO\": [{\n\"code\": \"TDMAXNO\",\n\"values\": \"5\",\n\"componentLabel\": \"TDMAXNO\",\n\"groupName\": \"TDMAXNO\",\n\"componentType\": \"TEXT\",\n\"displayOrder\": 1\n}],\n\"MARIGN75\": [{\n\"code\": \"MARIGN75\",\n\"values\": \"0.5\",\n\"componentLabel\": \"MARIGN75\",\n\"groupName\": \"MARIGN75\",\n\"componentType\": \"TEXT\",\n\"displayOrder\": 1\n}],\n\"NO_DAYS\": [{\n\"code\": \"NO_DAYS\",\n\"values\": \"1\",\n\"componentLabel\": \"NO_DAYS\",\n\"groupName\": \"NO_DAYS\",\n\"componentType\": \"TEXT\",\n\"displayOrder\": 1\n}],\n\"STASH_AMT\": [{\n\"code\": \"STASH_AMT\",\n\"values\": \"50000\",\n\"componentLabel\": \"STASH_AMT\",\n\"groupName\": \"STASH_AMT\",\n\"componentType\": \"TEXT\",\n\"displayOrder\": 1\n}],\n\"STASH_MARGIN_VALUE\": [{\n\"code\": \"STASH_MARGIN_VALUE\",\n\"values\": \"1000\",\n\"componentLabel\": \"STASH_MARGIN_VALUE\",\n\"groupName\": \"STASH_MARGIN_VALUE\",\n\"componentType\": \"TEXT\",\n\"displayOrder\": 1\n}],\n\"Fraud Score Validation\": [{\n\"code\": \"VALIDATION_FRAUD_SCORE\",\n\"values\": \"1000\",\n\"componentLabel\": \"Fraud Score Validation\",\n\"groupName\": \"Fraud Score Validation\",\n\"componentType\": \"TEXT\",\n\"displayOrder\": 1\n}],\n\"LOAN_CONFIGURATION\": [{\n\"code\": \"LOAN_POI3_RETRY_COUNT\",\n\"values\": \"4\",\n\"componentLabel\": \"LOAN_POI3_RETRY_COUNT\",\n\"groupName\": \"LOAN_CONFIGURATION\",\n\"componentType\": \"TEXT\",\n\"displayOrder\": 1\n},\n{\n\"code\": \"BNPL_PILOT_SWITCH\",\n\"values\": \"true,false\",\n\"selectedValues\": \"true\",\n\"componentLabel\": \"BNPL_PILOT_SWITCH\",\n\"groupName\": \"LOAN_CONFIGURATION\",\n\"componentType\": \"SELECT\",\n\"displayOrder\": 15,\n\"selectedIndex\": \"1\"\n}\n],\n\"Credolab Config\": [{\n\"code\": \"CREDOLAB_CD\",\n\"values\": \"D92\",\n\"componentLabel\": \"Credolab Vendor ID\",\n\"groupName\": \"Credolab Config\",\n\"componentType\": \"TEXT\",\n\"displayOrder\": 1\n},\n{\n\"code\": \"CREDOLAB_DEDUP_BYPASS\",\n\"values\": \"Y,N\",\n\"selectedValues\": \"Y\",\n\"componentLabel\": \"CREDOLAB DEDUP BYPASS\",\n\"groupName\": \"Credolab Config\",\n\"componentType\": \"SELECT\",\n\"displayOrder\": 2,\n\"selectedIndex\": \"1\"\n}\n],\n\"INTRSTTD\": [{\n\"code\": \"INTRSTTD\",\n\"values\": \"5\",\n\"componentLabel\": \"INTRSTTD\",\n\"groupName\": \"INTRSTTD\",\n\"componentType\": \"TEXT\",\n\"displayOrder\": 1\n}],\n\"ERLYWD\": [{\n\"code\": \"ERLYWD\",\n\"values\": \"Free\",\n\"componentLabel\": \"ERLYWD\",\n\"groupName\": \"ERLYWD\",\n\"componentType\": \"TEXT\",\n\"displayOrder\": 1\n}],\n\"TONIKVALUE\": [{\n\"code\": \"TONIKVALUE\",\n\"values\": \"Tonik Account\",\n\"componentLabel\": \"TONIKVALUE\",\n\"groupName\": \"TONIKVALUE\",\n\"componentType\": \"TEXT\",\n\"displayOrder\": 1\n}],\n\"STASHCONTRI\": [{\n\"code\": \"STASHCONTRI\",\n\"values\": \"1\",\n\"componentLabel\": \"STASHCONTRI\",\n\"groupName\": \"STASHCONTRI\",\n\"componentType\": \"TEXT\",\n\"displayOrder\": 1\n}],\n\"DAON_CONFIGURATION\": [{\n\"code\": \"DAON_CONFIG_SDK_LOG\",\n\"values\": \"false,true\",\n\"selectedValues\": \"false\",\n\"componentLabel\": \"DAON_CONFIG_SDK_LOG\",\n\"groupName\": \"DAON_CONFIGURATION\",\n\"componentType\": \"SELECT\",\n\"displayOrder\": 1,\n\"selectedIndex\": \"1\"\n},\n{\n\"code\": \"DAON_SDK_D409#8201_LIVENESS_RECOGNITION_TIMEOUT\",\n\"values\": \"60000\",\n\"componentLabel\": \"DAON_SDK_D409#8201_LIVENESS_RECOGNITION_TIMEOUT\",\n\"groupName\": \"DAON_CONFIGURATION\",\n\"componentType\": \"TEXT\",\n\"displayOrder\": 6\n}\n],\n\"SKYCMAX\": [{\n\"code\": \"SKYCMAX\",\n\"values\": \"250000\",\n\"componentLabel\": \"SKYCMAX\",\n\"groupName\": \"SKYCMAX\",\n\"componentType\": \"TEXT\",\n\"displayOrder\": 1\n}],\n\"FKYCMAX\": [{\n\"code\": \"FKYCMAX\",\n\"values\": \"100000000\",\n\"componentLabel\": \"FKYCMAX\",\n\"groupName\": \"FKYCMAX\",\n\"componentType\": \"TEXT\",\n\"displayOrder\": 1\n}],\n\"FLOATING_INT_50K\": [{\n\"code\": \"FLOATING_INT_50K\",\n\"values\": \"4\",\n\"selectedValues\": \"4\",\n\"componentLabel\": \"FLOATING_INT_50K\",\n\"groupName\": \"FLOATING_INT_50K\",\n\"componentType\": \"SELECT\",\n\"displayOrder\": 1,\n\"selectedIndex\": \"1\"\n}],\n\"Creadolab Score Sub Type\": [{\n\"code\": \"CREADOLAB_FRAUD_SCORE_ID\",\n\"values\": \"10466\",\n\"componentLabel\": \"Creadolab Score Sub Type\",\n\"groupName\": \"Creadolab Score Sub Type\",\n\"componentType\": \"TEXT\",\n\"displayOrder\": 1\n}],\n\"SKYC_STASH_COUNT\": [{\n\"code\": \"SKYC_STASH_COUNT\",\n\"values\": \"5\",\n\"componentLabel\": \"SKYC_STASH_COUNT\",\n\"groupName\": \"SKYC_STASH_COUNT\",\n\"componentType\": \"TEXT\",\n\"displayOrder\": 1\n}],\n\"PURPOSE OF ACCOUNT VERSION CHECK\": [{\n\"code\": \"purpose_of_account_open_android_version\",\n\"values\": \"3.0.2\",\n\"componentLabel\": \"ANDROID VERSION\",\n\"groupName\": \"PURPOSE OF ACCOUNT VERSION CHECK\",\n\"componentType\": \"TEXT\",\n\"displayOrder\": 3\n}],\n\"CDD RULES\": [{\n\"code\": \"CDD_NOTIFY_SMS\",\n\"values\": \"Y,N\",\n\"selectedValues\": \"Y\",\n\"componentLabel\": \"CDD Notify SMS\",\n\"groupName\": \"CDD RULES\",\n\"componentType\": \"SELECT\",\n\"displayOrder\": 4,\n\"selectedIndex\": \"1\"\n}],\n\"Audit Configuratuion\": [{\n\"code\": \"REGISTER_SERVICE_AUDIT_FLAG\",\n\"values\": \"YES,NO\",\n\"selectedValues\": \"NO\",\n\"componentLabel\": \"Register service audit flag\",\n\"groupName\": \"Audit Configuratuion\",\n\"componentType\": \"SELECT\",\n\"displayOrder\": 10,\n\"selectedIndex\": \"2\"\n}],\n\"app_test_config\": [{\n\"code\": \"CUST_RUL_CODE\",\n\"values\": \"100\",\n\"componentLabel\": \"CustomRule\",\n\"groupName\": \"app_test_config\",\n\"componentType\": \"TEXT\",\n\"displayOrder\": 10\n}],\n\"CDD_BLOCK_USERS\": [{\n\"code\": \"CDD_BLOCK_USERS\",\n\"values\": \"Y,N\",\n\"selectedValues\": \"Y\",\n\"componentLabel\": \"CDD BLOCK USERS\",\n\"groupName\": \"CDD_BLOCK_USERS\",\n\"componentType\": \"SELECT\",\n\"displayOrder\": 21,\n\"selectedIndex\": \"1\"\n}],\n\"CDD_REVIEW_JIRA_REASON_CATEGORY\": [{\n\"code\": \"CDD_REVIEW_JIRA_REASON_CATEGORY\",\n\"values\": \"1,2,3\",\n\"selectedValues\": \"1\",\n\"componentLabel\": \"CDD REVIEW JIRA REASON CATEGORY\",\n\"groupName\": \"CDD_REVIEW_JIRA_REASON_CATEGORY\",\n\"componentType\": \"SELECT\",\n\"displayOrder\": 22,\n\"selectedIndex\": \"1\"\n}],\n\"ADMIN AUDIT FLAG\": [{\n\"code\": \"ADMIN_AUDIT_FLAG\",\n\"values\": \"Y,N\",\n\"selectedValues\": \"Y\",\n\"componentLabel\": \"ADMIN AUDIT FLAG\",\n\"groupName\": \"ADMIN AUDIT FLAG\",\n\"componentType\": \"SELECT\",\n\"displayOrder\": 50,\n\"selectedIndex\": \"1\"\n}],\n\"APPMSG_HASHKEY\": [{\n\"code\": \" topup \",\n\"values\": \"1271202656\",\n\"displayOrder\": 0\n}]\n},\n\"meta\": {\n\"totalPages\": 0\n},\n\"status\": {\n\"code\": \"00\",\n\"message\": \"Success\"\n}\n}",
    "allOf" : [ {
      "$ref" : "ArrExample"
    }, {
      "type" : "object",
      "properties" : { }
    } ]
  }
}